%YAML 1.1
%TAG !u! tag:unity3d.com,2011:
--- !u!1 &1743528091397272
GameObject:
  m_ObjectHideFlags: 0
  m_CorrespondingSourceObject: {fileID: 0}
  m_PrefabInstance: {fileID: 0}
  m_PrefabAsset: {fileID: 0}
  serializedVersion: 6
  m_Component:
  - component: {fileID: 4630073078920638}
  - component: {fileID: 114544610918544772}
  m_Layer: 0
  m_Name: LDC
  m_TagString: Untagged
  m_Icon: {fileID: 0}
  m_NavMeshLayer: 0
  m_StaticEditorFlags: 0
  m_IsActive: 1
--- !u!4 &4630073078920638
Transform:
  m_ObjectHideFlags: 0
  m_CorrespondingSourceObject: {fileID: 0}
  m_PrefabInstance: {fileID: 0}
  m_PrefabAsset: {fileID: 0}
  m_GameObject: {fileID: 1743528091397272}
  m_LocalRotation: {x: 0, y: 0, z: 0, w: 1}
  m_LocalPosition: {x: -1.3435686, y: -0.22790127, z: 0.01171875}
  m_LocalScale: {x: 1, y: 1, z: 1}
  m_Children: []
  m_Father: {fileID: 0}
  m_RootOrder: 0
  m_LocalEulerAnglesHint: {x: 0, y: 0, z: 0}
--- !u!114 &114544610918544772
MonoBehaviour:
  m_ObjectHideFlags: 0
  m_CorrespondingSourceObject: {fileID: 0}
  m_PrefabInstance: {fileID: 0}
  m_PrefabAsset: {fileID: 0}
  m_GameObject: {fileID: 1743528091397272}
  m_Enabled: 1
  m_EditorHideFlags: 0
  m_Script: {fileID: 11500000, guid: 3502503f509d88f43892dff933c039cf, type: 3}
  m_Name: 
  m_EditorClassIdentifier: 
  NameCurrency: LDC
  CuretnRate: 1792
  DefaultRate: 1792
  ColorInGraph: {r: 0, g: 1, b: 0.049598455, a: 1}
  PrefabPoint: {fileID: 1055536962807074, guid: 053c8efc7dd51a84c84df23cb7898cd4,
    type: 3}
