%YAML 1.1
%TAG !u! tag:unity3d.com,2011:
--- !u!1 &1557933819451546
GameObject:
  m_ObjectHideFlags: 0
  m_CorrespondingSourceObject: {fileID: 0}
  m_PrefabInstance: {fileID: 0}
  m_PrefabAsset: {fileID: 0}
  serializedVersion: 6
  m_Component:
  - component: {fileID: 4029331394049172}
  - component: {fileID: 114407244952330784}
  m_Layer: 0
  m_Name: MEM1
  m_TagString: Untagged
  m_Icon: {fileID: 0}
  m_NavMeshLayer: 0
  m_StaticEditorFlags: 0
  m_IsActive: 1
--- !u!4 &4029331394049172
Transform:
  m_ObjectHideFlags: 0
  m_CorrespondingSourceObject: {fileID: 0}
  m_PrefabInstance: {fileID: 0}
  m_PrefabAsset: {fileID: 0}
  m_GameObject: {fileID: 1557933819451546}
  m_LocalRotation: {x: 0, y: 0, z: 0, w: 1}
  m_LocalPosition: {x: 0.6534049, y: 0.5442226, z: -0.023688668}
  m_LocalScale: {x: 1, y: 1, z: 1}
  m_Children: []
  m_Father: {fileID: 0}
  m_RootOrder: 0
  m_LocalEulerAnglesHint: {x: 0, y: 0, z: 0}
--- !u!114 &114407244952330784
MonoBehaviour:
  m_ObjectHideFlags: 0
  m_CorrespondingSourceObject: {fileID: 0}
  m_PrefabInstance: {fileID: 0}
  m_PrefabAsset: {fileID: 0}
  m_GameObject: {fileID: 1557933819451546}
  m_Enabled: 1
  m_EditorHideFlags: 0
  m_Script: {fileID: 11500000, guid: 1a8e60ca6e0a0884fa402eb82f1c09a1, type: 3}
  m_Name: 
  m_EditorClassIdentifier: 
  ImageItem: {fileID: 21300000, guid: 9b4be3f7980f584418870061e3c4dbbf, type: 3}
  NameItem: MEM1
  DescriptionItem: MEM1
  CoastItem: 1360000
  DonatCoastItem: 0
  ClickForce: 2080
  SecondForce: 4720
  ProcentUpgrade: 0
  StepProcentUpgrade: 20
  ChanceDestroy: 0
